{
	"folders": {},
	"connections": {
		"mysql8-17d80847269-5e23f6659ebe7a88": {
			"provider": "mysql",
			"driver": "mysql8",
			"name": "localhost",
			"save-password": true,
			"read-only": false,
			"configuration": {
				"host": "localhost",
				"port": "3306",
				"url": "jdbc:mysql://localhost:3306/",
				"home": "C:\\Program Files\\MySQL\\MySQL Server 8.0",
				"type": "dev",
				"auth-model": "native",
				"handlers": {}
			}
		},
		"mysql8-17d808551e8-371949f5e63f0ac7": {
			"provider": "mysql",
			"driver": "mysql8",
			"name": "localhost 2",
			"save-password": true,
			"read-only": false,
			"configuration": {
				"host": "localhost",
				"port": "3306",
				"url": "jdbc:mysql://localhost:3306/",
				"home": "C:\\Program Files\\MySQL\\MySQL Server 8.0",
				"type": "dev",
				"auth-model": "native",
				"handlers": {}
			}
		}
	},
	"connection-types": {
		"dev": {
			"name": "Development",
			"color": "255,255,255",
			"description": "Regular development database",
			"auto-commit": true,
			"confirm-execute": false,
			"confirm-data-change": false,
			"auto-close-transactions": false
		}
	}
}